waveform.vcd
$date
     Jun 16, 2022       08:20:41
$end

$version
 SystemC 2.3.3-Accellera --- May 11 2022 14:10:07
$end

$timescale
     1 ps
$end

$scope module SystemC $end
$var wire    1  aaaaa  clk_8051       $end
$var wire    1  aaaab  clk       $end
$var wire    8  aaaac  port0o [7:0]  $end
$var wire    8  aaaad  port3o [7:0]  $end
$var wire    8  aaaae  port2i [7:0]  $end
$var wire    8  aaaaf  port1i [7:0]  $end
$var wire    8  aaaag  port3i [7:0]  $end
$upscope $end
$enddefinitions  $end

$comment
All initial values are dumped below at time 0 sec = 0 timescale units.
$end

$dumpvars
0aaaaa
0aaaab
b11111111 aaaac
b11111111 aaaad
b0 aaaae
b0 aaaaf
b0 aaaag
$end

#1000
1aaaaa
1aaaab

#3000
0aaaaa

#5000
1aaaaa

#6000
0aaaab

#7000
0aaaaa

#9000
1aaaaa

#11000
0aaaaa
1aaaab

#13000
1aaaaa

#15000
0aaaaa

#16000
0aaaab

#17000
1aaaaa

#19000
0aaaaa

#21000
1aaaaa
1aaaab

#23000
0aaaaa

#25000
1aaaaa

#26000
0aaaab

#27000
0aaaaa

#29000
1aaaaa

#31000
0aaaaa
1aaaab

#33000
1aaaaa

#35000
0aaaaa

#36000
0aaaab

#37000
1aaaaa

#39000
0aaaaa

#41000
1aaaaa
1aaaab

#43000
0aaaaa

#45000
1aaaaa

#46000
0aaaab

#47000
0aaaaa

#49000
1aaaaa

#51000
0aaaaa
1aaaab

#53000
1aaaaa

#55000
0aaaaa

#56000
0aaaab

#57000
1aaaaa

#59000
0aaaaa

#61000
1aaaaa
1aaaab

#63000
0aaaaa

#65000
1aaaaa

#66000
0aaaab

#67000
0aaaaa

#69000
1aaaaa

#71000
0aaaaa
1aaaab

#73000
1aaaaa

#75000
0aaaaa

#76000
0aaaab

#77000
1aaaaa

#79000
0aaaaa

#81000
1aaaaa
1aaaab

#83000
0aaaaa

#85000
1aaaaa

#86000
0aaaab

#87000
0aaaaa

#89000
1aaaaa

#91000
0aaaaa
1aaaab

#93000
1aaaaa

#95000
0aaaaa

#96000
0aaaab

#97000
1aaaaa

#99000
0aaaaa

#101000
1aaaaa
1aaaab

#103000
0aaaaa

#105000
1aaaaa

#106000
0aaaab

#107000
0aaaaa

#109000
1aaaaa

#111000
0aaaaa
1aaaab

#113000
1aaaaa

#115000
0aaaaa

#116000
0aaaab

#117000
1aaaaa

#119000
0aaaaa

#121000
1aaaaa
1aaaab

#123000
0aaaaa

#125000
1aaaaa

#126000
0aaaab

#127000
0aaaaa

#129000
1aaaaa

#131000
0aaaaa
1aaaab

#133000
1aaaaa

#135000
0aaaaa

#136000
0aaaab

#137000
1aaaaa

#139000
0aaaaa

#141000
1aaaaa
1aaaab

#143000
0aaaaa

#145000
1aaaaa

#146000
0aaaab

#147000
0aaaaa

#149000
1aaaaa

#151000
0aaaaa
1aaaab

#153000
1aaaaa

#155000
0aaaaa

#156000
0aaaab

#157000
1aaaaa

#159000
0aaaaa

#161000
1aaaaa
1aaaab

#163000
0aaaaa

#165000
1aaaaa

#166000
0aaaab

#167000
0aaaaa

#169000
1aaaaa

#171000
0aaaaa
1aaaab

#173000
1aaaaa

#175000
0aaaaa

#176000
0aaaab

#177000
1aaaaa

#179000
0aaaaa

#181000
1aaaaa
1aaaab

#183000
0aaaaa

#185000
1aaaaa

#186000
0aaaab

#187000
0aaaaa

#189000
1aaaaa

#191000
0aaaaa
1aaaab

#193000
1aaaaa

#195000
0aaaaa

#196000
0aaaab

#197000
1aaaaa

#199000
0aaaaa

#201000
1aaaaa
1aaaab

#203000
0aaaaa

#205000
1aaaaa

#206000
0aaaab

#207000
0aaaaa

#209000
1aaaaa

#211000
0aaaaa
1aaaab

#213000
1aaaaa

#215000
0aaaaa

#216000
0aaaab

#217000
1aaaaa

#219000
0aaaaa

#221000
1aaaaa
1aaaab

#223000
0aaaaa

#225000
1aaaaa

#226000
0aaaab

#227000
0aaaaa

#229000
1aaaaa

#231000
0aaaaa
1aaaab

#233000
1aaaaa

#235000
0aaaaa

#236000
0aaaab

#237000
1aaaaa

#239000
0aaaaa

#241000
1aaaaa
1aaaab

#243000
0aaaaa

#245000
1aaaaa

#246000
0aaaab

#247000
0aaaaa

#249000
1aaaaa

#251000
0aaaaa
1aaaab

#253000
1aaaaa

#255000
0aaaaa

#256000
0aaaab

#257000
1aaaaa

#259000
0aaaaa

#261000
1aaaaa
1aaaab

#263000
0aaaaa

#265000
1aaaaa

#266000
0aaaab

#267000
0aaaaa

#269000
1aaaaa

#271000
0aaaaa
1aaaab

#273000
1aaaaa

#275000
0aaaaa

#276000
0aaaab

#277000
1aaaaa

#279000
0aaaaa

#281000
1aaaaa
1aaaab

#283000
0aaaaa

#285000
1aaaaa

#286000
0aaaab

#287000
0aaaaa

#289000
1aaaaa

#291000
0aaaaa
1aaaab

#293000
1aaaaa

#295000
0aaaaa

#296000
0aaaab

#297000
1aaaaa

#299000
0aaaaa

#301000
1aaaaa
1aaaab

#303000
0aaaaa

#305000
1aaaaa

#306000
0aaaab

#307000
0aaaaa

#309000
1aaaaa

#311000
0aaaaa
1aaaab

#313000
1aaaaa

#315000
0aaaaa

#316000
0aaaab

#317000
1aaaaa

#319000
0aaaaa

#321000
1aaaaa
1aaaab

#323000
0aaaaa

#325000
1aaaaa

#326000
0aaaab

#327000
0aaaaa

#329000
1aaaaa

#331000
0aaaaa
1aaaab

#333000
1aaaaa

#335000
0aaaaa

#336000
0aaaab

#337000
1aaaaa

#339000
0aaaaa

#341000
1aaaaa
1aaaab

#343000
0aaaaa

#345000
1aaaaa

#346000
0aaaab

#347000
0aaaaa

#349000
1aaaaa

#351000
0aaaaa
1aaaab

#353000
1aaaaa

#355000
0aaaaa

#356000
0aaaab

#357000
1aaaaa

#359000
0aaaaa

#361000
1aaaaa
1aaaab

#363000
0aaaaa

#365000
1aaaaa

#366000
0aaaab

#367000
0aaaaa

#369000
1aaaaa

#371000
0aaaaa
1aaaab

#373000
1aaaaa

#375000
0aaaaa

#376000
0aaaab

#377000
1aaaaa

#379000
0aaaaa

#381000
1aaaaa
1aaaab

#383000
0aaaaa

#385000
1aaaaa

#386000
0aaaab

#387000
0aaaaa

#389000
1aaaaa

#391000
0aaaaa
1aaaab

#393000
1aaaaa

#395000
0aaaaa

#396000
0aaaab

#397000
1aaaaa

#399000
0aaaaa

#401000
1aaaaa
1aaaab

#403000
0aaaaa

#405000
1aaaaa

#406000
0aaaab

#407000
0aaaaa

#409000
1aaaaa

#411000
0aaaaa
1aaaab

#413000
1aaaaa

#415000
0aaaaa

#416000
0aaaab

#417000
1aaaaa

#419000
0aaaaa

#421000
1aaaaa
1aaaab

#423000
0aaaaa

#425000
1aaaaa

#426000
0aaaab

#427000
0aaaaa

#429000
1aaaaa

#431000
0aaaaa
1aaaab

#433000
1aaaaa

#435000
0aaaaa

#436000
0aaaab

#437000
1aaaaa

#439000
0aaaaa

#441000
1aaaaa
1aaaab

#443000
0aaaaa

#445000
1aaaaa

#446000
0aaaab

#447000
0aaaaa

#449000
1aaaaa

#451000
0aaaaa
1aaaab

#453000
1aaaaa

#455000
0aaaaa

#456000
0aaaab

#457000
1aaaaa

#459000
0aaaaa

#461000
1aaaaa
1aaaab

#463000
0aaaaa

#465000
1aaaaa

#466000
0aaaab

#467000
0aaaaa

#469000
1aaaaa

#471000
0aaaaa
1aaaab

#473000
1aaaaa

#475000
0aaaaa

#476000
0aaaab

#477000
1aaaaa

#479000
0aaaaa

#481000
1aaaaa
1aaaab

#483000
0aaaaa

#485000
1aaaaa

#486000
0aaaab

#487000
0aaaaa

#489000
1aaaaa

#491000
0aaaaa
1aaaab

#493000
1aaaaa

#495000
0aaaaa

#496000
0aaaab

#497000
1aaaaa

#499000
0aaaaa

#501000
1aaaaa
1aaaab

#503000
0aaaaa

#505000
1aaaaa

#506000
0aaaab

#507000
0aaaaa

#509000
1aaaaa

#511000
0aaaaa
1aaaab

#513000
1aaaaa

#515000
0aaaaa

#516000
0aaaab

#517000
1aaaaa

#519000
0aaaaa

#521000
1aaaaa
1aaaab

#523000
0aaaaa

#525000
1aaaaa

#526000
0aaaab

#527000
0aaaaa

#529000
1aaaaa

#531000
0aaaaa
1aaaab

#533000
1aaaaa

#535000
0aaaaa

#536000
0aaaab

#537000
1aaaaa

#539000
0aaaaa

#541000
1aaaaa
1aaaab

#543000
0aaaaa

#545000
1aaaaa

#546000
0aaaab

#547000
0aaaaa

#549000
1aaaaa

#551000
0aaaaa
1aaaab

#553000
1aaaaa

#555000
0aaaaa

#556000
0aaaab

#557000
1aaaaa

#559000
0aaaaa

#561000
1aaaaa
1aaaab

#563000
0aaaaa

#565000
1aaaaa

#566000
0aaaab

#567000
0aaaaa

#569000
1aaaaa

#571000
0aaaaa
1aaaab

#573000
1aaaaa

#575000
0aaaaa

#576000
0aaaab

#577000
1aaaaa

#579000
0aaaaa

#581000
1aaaaa
1aaaab

#583000
0aaaaa

#585000
1aaaaa

#586000
0aaaab

#587000
0aaaaa

#589000
1aaaaa

#591000
0aaaaa
1aaaab

#593000
1aaaaa

#595000
0aaaaa

#596000
0aaaab

#597000
1aaaaa

#599000
0aaaaa

#601000
1aaaaa
1aaaab

#603000
0aaaaa

#605000
1aaaaa

#606000
0aaaab

#607000
0aaaaa

#609000
1aaaaa

#611000
0aaaaa
1aaaab

#613000
1aaaaa

#615000
0aaaaa

#616000
0aaaab

#617000
1aaaaa

#619000
0aaaaa

#621000
1aaaaa
1aaaab

#623000
0aaaaa

#625000
1aaaaa

#626000
0aaaab

#627000
0aaaaa

#629000
1aaaaa

#631000
0aaaaa
1aaaab

#633000
1aaaaa

#635000
0aaaaa

#636000
0aaaab

#637000
1aaaaa

#639000
0aaaaa

#641000
1aaaaa
1aaaab

#643000
0aaaaa

#645000
1aaaaa

#646000
0aaaab

#647000
0aaaaa

#649000
1aaaaa

#651000
0aaaaa
1aaaab

#653000
1aaaaa

#655000
0aaaaa

#656000
0aaaab

#657000
1aaaaa

#659000
0aaaaa

#661000
1aaaaa
1aaaab

#663000
0aaaaa

#665000
1aaaaa

#666000
0aaaab

#667000
0aaaaa

#669000
1aaaaa

#671000
0aaaaa
1aaaab

#673000
1aaaaa

#675000
0aaaaa

#676000
0aaaab

#677000
1aaaaa

#679000
0aaaaa

#681000
1aaaaa
1aaaab

#683000
0aaaaa

#685000
1aaaaa

#686000
0aaaab

#687000
0aaaaa

#689000
1aaaaa

#691000
0aaaaa
1aaaab

#693000
1aaaaa

#695000
0aaaaa

#696000
0aaaab

#697000
1aaaaa

#699000
0aaaaa

#701000
1aaaaa
1aaaab

#703000
0aaaaa

#705000
1aaaaa

#706000
0aaaab

#707000
0aaaaa

#709000
1aaaaa

#711000
0aaaaa
1aaaab

#713000
1aaaaa

#715000
0aaaaa

#716000
0aaaab

#717000
1aaaaa

#719000
0aaaaa

#721000
1aaaaa
1aaaab

#723000
0aaaaa

#725000
1aaaaa

#726000
0aaaab

#727000
0aaaaa

#729000
1aaaaa

#731000
0aaaaa
1aaaab

#733000
1aaaaa

#735000
0aaaaa

#736000
0aaaab

#737000
1aaaaa

#739000
0aaaaa

#741000
1aaaaa
1aaaab

#743000
0aaaaa

#745000
1aaaaa

#746000
0aaaab

#747000
0aaaaa

#749000
1aaaaa

#751000
0aaaaa
1aaaab

#753000
1aaaaa

#755000
0aaaaa

#756000
0aaaab

#757000
1aaaaa

#759000
0aaaaa

#761000
1aaaaa
1aaaab

#763000
0aaaaa

#765000
1aaaaa

#766000
0aaaab

#767000
0aaaaa

#769000
1aaaaa

#771000
0aaaaa
1aaaab

#773000
1aaaaa

#775000
0aaaaa

#776000
0aaaab

#777000
1aaaaa

#779000
0aaaaa

#781000
1aaaaa
1aaaab

#783000
0aaaaa

#785000
1aaaaa

#786000
0aaaab

#787000
0aaaaa

#789000
1aaaaa

#791000
0aaaaa
1aaaab

#793000
1aaaaa

#795000
0aaaaa

#796000
0aaaab

#797000
1aaaaa

#799000
0aaaaa

#801000
1aaaaa
1aaaab

#803000
0aaaaa

#805000
1aaaaa

#806000
0aaaab

#807000
0aaaaa

#809000
1aaaaa

#811000
0aaaaa
1aaaab

#813000
1aaaaa

#815000
0aaaaa

#816000
0aaaab

#817000
1aaaaa

#819000
0aaaaa

#821000
1aaaaa
1aaaab

#823000
0aaaaa

#825000
1aaaaa

#826000
0aaaab

#827000
0aaaaa

#829000
1aaaaa

#831000
0aaaaa
1aaaab

#833000
1aaaaa

#835000
0aaaaa

#836000
0aaaab

#837000
1aaaaa

#839000
0aaaaa

#841000
1aaaaa
1aaaab

#843000
0aaaaa

#845000
1aaaaa

#846000
0aaaab

#847000
0aaaaa

#849000
1aaaaa

#851000
0aaaaa
1aaaab

#853000
1aaaaa

#855000
0aaaaa

#856000
0aaaab

#857000
1aaaaa

#859000
0aaaaa

#861000
1aaaaa
1aaaab

#863000
0aaaaa

#865000
1aaaaa

#866000
0aaaab

#867000
0aaaaa

#869000
1aaaaa

#871000
0aaaaa
1aaaab

#873000
1aaaaa

#875000
0aaaaa

#876000
0aaaab

#877000
1aaaaa

#879000
0aaaaa

#881000
1aaaaa
1aaaab

#883000
0aaaaa

#885000
1aaaaa
b0 aaaac

#886000
0aaaab

#887000
0aaaaa

#889000
1aaaaa

#891000
0aaaaa
1aaaab

#893000
1aaaaa

#895000
0aaaaa

#896000
0aaaab

#897000
1aaaaa
b0 aaaad

#899000
0aaaaa

#901000
1aaaaa
1aaaab

#903000
0aaaaa

#905000
1aaaaa

#906000
0aaaab

#907000
0aaaaa

#909000
1aaaaa

#911000
0aaaaa
1aaaab

#913000
1aaaaa

#915000
0aaaaa

#916000
0aaaab

#917000
1aaaaa

#919000
0aaaaa

#921000
1aaaaa
1aaaab

#923000
0aaaaa

#925000
1aaaaa

#926000
0aaaab

#927000
0aaaaa

#929000
1aaaaa

#931000
0aaaaa
1aaaab

#933000
1aaaaa

#935000
0aaaaa

#936000
0aaaab

#937000
1aaaaa
b10 aaaad

#939000
0aaaaa

#941000
1aaaaa
1aaaab

#943000
0aaaaa

#945000
1aaaaa

#946000
0aaaab

#947000
0aaaaa

#949000
1aaaaa

#951000
0aaaaa
1aaaab

#953000
1aaaaa

#955000
0aaaaa

#956000
0aaaab

#957000
1aaaaa

#959000
0aaaaa

#961000
1aaaaa
1aaaab

#963000
0aaaaa

#965000
1aaaaa

#966000
0aaaab

#967000
0aaaaa

#969000
1aaaaa

#971000
0aaaaa
1aaaab

#973000
1aaaaa

#975000
0aaaaa

#976000
0aaaab

#977000
1aaaaa

#979000
0aaaaa

#981000
1aaaaa
1aaaab
b1 aaaad

#983000
0aaaaa

#985000
1aaaaa

#986000
0aaaab

#987000
0aaaaa

#989000
1aaaaa

#991000
0aaaaa
1aaaab

#993000
1aaaaa

#995000
0aaaaa

#996000
0aaaab

#997000
1aaaaa

#999000
0aaaaa

#1001000
1aaaaa
1aaaab

#1003000
0aaaaa

#1005000
1aaaaa

#1006000
0aaaab

#1007000
0aaaaa

#1009000
1aaaaa

#1011000
0aaaaa
1aaaab

#1013000
1aaaaa

#1015000
0aaaaa

#1016000
0aaaab

#1017000
1aaaaa

#1019000
0aaaaa

#1021000
1aaaaa
1aaaab
b10 aaaad

#1023000
0aaaaa
b1 aaaag

#1025000
1aaaaa
b1 aaaac

#1026000
0aaaab

#1027000
0aaaaa

#1029000
1aaaaa

#1031000
0aaaaa
1aaaab

#1033000
1aaaaa

#1035000
0aaaaa

#1036000
0aaaab

#1037000
1aaaaa

#1039000
0aaaaa

#1041000
1aaaaa
1aaaab

#1043000
0aaaaa

#1045000
1aaaaa

#1046000
0aaaab

#1047000
0aaaaa

#1049000
1aaaaa

#1051000
0aaaaa
1aaaab

#1053000
1aaaaa

#1055000
0aaaaa

#1056000
0aaaab

#1057000
1aaaaa

#1059000
0aaaaa

#1061000
1aaaaa
1aaaab

#1063000
0aaaaa

#1065000
1aaaaa
b1 aaaad

#1066000
0aaaab

#1067000
0aaaaa

#1069000
1aaaaa

#1071000
0aaaaa
1aaaab

#1073000
1aaaaa

#1075000
0aaaaa

#1076000
0aaaab

#1077000
1aaaaa

#1079000
0aaaaa

#1081000
1aaaaa
1aaaab

#1083000
0aaaaa

#1085000
1aaaaa

#1086000
0aaaab

#1087000
0aaaaa

#1089000
1aaaaa

#1091000
0aaaaa
1aaaab

#1093000
1aaaaa

#1095000
0aaaaa

#1096000
0aaaab

#1097000
1aaaaa

#1099000
0aaaaa

#1101000
1aaaaa
1aaaab

#1103000
0aaaaa

#1105000
1aaaaa
b10 aaaad

#1106000
0aaaab

#1107000
0aaaaa
b10 aaaag

#1109000
1aaaaa
b10 aaaac

#1111000
0aaaaa
1aaaab

#1113000
1aaaaa

#1115000
0aaaaa

#1116000
0aaaab

#1117000
1aaaaa

#1119000
0aaaaa

#1121000
1aaaaa
1aaaab

#1123000
0aaaaa

#1125000
1aaaaa

#1126000
0aaaab

#1127000
0aaaaa

#1129000
1aaaaa

#1131000
0aaaaa
1aaaab

#1133000
1aaaaa

#1135000
0aaaaa

#1136000
0aaaab

#1137000
1aaaaa

#1139000
0aaaaa

#1141000
1aaaaa
1aaaab

#1143000
0aaaaa

#1145000
1aaaaa

#1146000
0aaaab

#1147000
0aaaaa

#1149000
1aaaaa
b1 aaaad

#1151000
0aaaaa
1aaaab

#1153000
1aaaaa

#1155000
0aaaaa

#1156000
0aaaab

#1157000
1aaaaa

#1159000
0aaaaa

#1161000
1aaaaa
1aaaab

#1163000
0aaaaa

#1165000
1aaaaa

#1166000
0aaaab

#1167000
0aaaaa

#1169000
1aaaaa

#1171000
0aaaaa
1aaaab

#1173000
1aaaaa

#1175000
0aaaaa

#1176000
0aaaab

#1177000
1aaaaa

#1179000
0aaaaa

#1181000
1aaaaa
1aaaab

#1183000
0aaaaa

#1185000
1aaaaa

#1186000
0aaaab

#1187000
0aaaaa

#1189000
1aaaaa
b10 aaaad

#1191000
0aaaaa
1aaaab
b11 aaaag

#1193000
1aaaaa
b11 aaaac

#1195000
0aaaaa

#1196000
0aaaab

#1197000
1aaaaa

#1199000
0aaaaa

#1201000
1aaaaa
1aaaab

#1203000
0aaaaa

#1205000
1aaaaa

#1206000
0aaaab

#1207000
0aaaaa

#1209000
1aaaaa

#1211000
0aaaaa
1aaaab

#1213000
1aaaaa

#1215000
0aaaaa

#1216000
0aaaab

#1217000
1aaaaa

#1219000
0aaaaa

#1221000
1aaaaa
1aaaab

#1223000
0aaaaa

#1225000
1aaaaa

#1226000
0aaaab

#1227000
0aaaaa

#1229000
1aaaaa

#1231000
0aaaaa
1aaaab

#1233000
1aaaaa
b1 aaaad

#1235000
0aaaaa

#1236000
0aaaab

#1237000
1aaaaa

#1239000
0aaaaa

#1241000
1aaaaa
1aaaab

#1243000
0aaaaa

#1245000
1aaaaa

#1246000
0aaaab

#1247000
0aaaaa

#1249000
1aaaaa

#1251000
0aaaaa
1aaaab

#1253000
1aaaaa

#1255000
0aaaaa

#1256000
0aaaab

#1257000
1aaaaa

#1259000
0aaaaa

#1261000
1aaaaa
1aaaab

#1263000
0aaaaa

#1265000
1aaaaa

#1266000
0aaaab

#1267000
0aaaaa

#1269000
1aaaaa

#1271000
0aaaaa
1aaaab

#1273000
1aaaaa
b10 aaaad

#1275000
0aaaaa
b100 aaaag

#1276000
0aaaab

#1277000
1aaaaa
b100 aaaac

#1279000
0aaaaa

#1281000
1aaaaa
1aaaab

#1283000
0aaaaa

#1285000
1aaaaa

#1286000
0aaaab

#1287000
0aaaaa

#1289000
1aaaaa

#1291000
0aaaaa
1aaaab

#1293000
1aaaaa

#1295000
0aaaaa

#1296000
0aaaab

#1297000
1aaaaa

#1299000
0aaaaa

#1301000
1aaaaa
1aaaab

#1303000
0aaaaa

#1305000
1aaaaa

#1306000
0aaaab

#1307000
0aaaaa

#1309000
1aaaaa

#1311000
0aaaaa
1aaaab

#1313000
1aaaaa

#1315000
0aaaaa

#1316000
0aaaab

#1317000
1aaaaa
b1 aaaad

#1319000
0aaaaa

#1321000
1aaaaa
1aaaab

#1323000
0aaaaa

#1325000
1aaaaa

#1326000
0aaaab

#1327000
0aaaaa

#1329000
1aaaaa

#1331000
0aaaaa
1aaaab

#1333000
1aaaaa

#1335000
0aaaaa

#1336000
0aaaab

#1337000
1aaaaa

#1339000
0aaaaa

#1341000
1aaaaa
1aaaab

#1343000
0aaaaa

#1345000
1aaaaa

#1346000
0aaaab

#1347000
0aaaaa

#1349000
1aaaaa

#1351000
0aaaaa
1aaaab

#1353000
1aaaaa

#1355000
0aaaaa

#1356000
0aaaab

#1357000
1aaaaa
b10 aaaad

#1359000
0aaaaa
b101 aaaag

#1361000
1aaaaa
1aaaab
b101 aaaac

#1363000
0aaaaa

#1365000
1aaaaa

#1366000
0aaaab

#1367000
0aaaaa

#1369000
1aaaaa

#1371000
0aaaaa
1aaaab

#1373000
1aaaaa

#1375000
0aaaaa

#1376000
0aaaab

#1377000
1aaaaa

#1379000
0aaaaa

#1381000
1aaaaa
1aaaab

#1383000
0aaaaa

#1385000
1aaaaa

#1386000
0aaaab

#1387000
0aaaaa

#1389000
1aaaaa

#1391000
0aaaaa
1aaaab

#1393000
1aaaaa

#1395000
0aaaaa

#1396000
0aaaab

#1397000
1aaaaa

#1399000
0aaaaa

#1401000
1aaaaa
1aaaab
b1 aaaad

#1403000
0aaaaa

#1405000
1aaaaa

#1406000
0aaaab

#1407000
0aaaaa

#1409000
1aaaaa

#1411000
0aaaaa
1aaaab

#1413000
1aaaaa

#1415000
0aaaaa

#1416000
0aaaab

#1417000
1aaaaa

#1419000
0aaaaa

#1421000
1aaaaa
1aaaab

#1423000
0aaaaa

#1425000
1aaaaa

#1426000
0aaaab

#1427000
0aaaaa

#1429000
1aaaaa

#1431000
0aaaaa
1aaaab

#1433000
1aaaaa

#1435000
0aaaaa

#1436000
0aaaab

#1437000
1aaaaa

#1439000
0aaaaa

#1441000
1aaaaa
1aaaab
b10 aaaad

#1443000
0aaaaa
b110 aaaag

#1445000
1aaaaa
b110 aaaac

#1446000
0aaaab

#1447000
0aaaaa

#1449000
1aaaaa

#1451000
0aaaaa
1aaaab

#1453000
1aaaaa

#1455000
0aaaaa

#1456000
0aaaab

#1457000
1aaaaa

#1459000
0aaaaa

#1461000
1aaaaa
1aaaab

#1463000
0aaaaa

#1465000
1aaaaa

#1466000
0aaaab

#1467000
0aaaaa

#1469000
1aaaaa

#1471000
0aaaaa
1aaaab

#1473000
1aaaaa

#1475000
0aaaaa

#1476000
0aaaab

#1477000
1aaaaa

#1479000
0aaaaa

#1481000
1aaaaa
1aaaab

#1483000
0aaaaa

#1485000
1aaaaa
b1 aaaad

#1486000
0aaaab

#1487000
0aaaaa

#1489000
1aaaaa

#1491000
0aaaaa
1aaaab

#1493000
1aaaaa

#1495000
0aaaaa

#1496000
0aaaab

#1497000
1aaaaa

#1499000
0aaaaa

#1501000
1aaaaa
1aaaab

#1503000
0aaaaa

#1505000
1aaaaa

#1506000
0aaaab

#1507000
0aaaaa

#1509000
1aaaaa

#1511000
0aaaaa
1aaaab

#1513000
1aaaaa

#1515000
0aaaaa

#1516000
0aaaab

#1517000
1aaaaa

#1519000
0aaaaa

#1521000
1aaaaa
1aaaab

#1523000
0aaaaa

#1525000
1aaaaa
b10 aaaad

#1526000
0aaaab

#1527000
0aaaaa
b111 aaaag

#1529000
1aaaaa
b111 aaaac

#1531000
0aaaaa
1aaaab

#1533000
1aaaaa

#1535000
0aaaaa

#1536000
0aaaab

#1537000
1aaaaa

#1539000
0aaaaa

#1541000
1aaaaa
1aaaab

#1543000
0aaaaa

#1545000
1aaaaa

#1546000
0aaaab

#1547000
0aaaaa

#1549000
1aaaaa

#1551000
0aaaaa
1aaaab

#1553000
1aaaaa

#1555000
0aaaaa

#1556000
0aaaab

#1557000
1aaaaa

#1559000
0aaaaa

#1561000
1aaaaa
1aaaab

#1563000
0aaaaa

#1565000
1aaaaa

#1566000
0aaaab

#1567000
0aaaaa

#1569000
1aaaaa
b1 aaaad

#1571000
0aaaaa
1aaaab

#1573000
1aaaaa

#1575000
0aaaaa

#1576000
0aaaab

#1577000
1aaaaa

#1579000
0aaaaa

#1581000
1aaaaa
1aaaab

#1583000
0aaaaa

#1585000
1aaaaa

#1586000
0aaaab

#1587000
0aaaaa

#1589000
1aaaaa

#1591000
0aaaaa
1aaaab

#1593000
1aaaaa

#1595000
0aaaaa

#1596000
0aaaab

#1597000
1aaaaa

#1599000
0aaaaa

#1601000
1aaaaa
1aaaab

#1603000
0aaaaa

#1605000
1aaaaa

#1606000
0aaaab

#1607000
0aaaaa

#1609000
1aaaaa
b10 aaaad

#1611000
0aaaaa
1aaaab
b1000 aaaag

#1613000
1aaaaa
b1000 aaaac

#1615000
0aaaaa

#1616000
0aaaab

#1617000
1aaaaa

#1619000
0aaaaa

#1621000
1aaaaa
1aaaab

#1623000
0aaaaa

#1625000
1aaaaa

#1626000
0aaaab

#1627000
0aaaaa

#1629000
1aaaaa

#1631000
0aaaaa
1aaaab

#1633000
1aaaaa

#1635000
0aaaaa

#1636000
0aaaab

#1637000
1aaaaa

#1639000
0aaaaa

#1641000
1aaaaa
1aaaab

#1643000
0aaaaa

#1645000
1aaaaa

#1646000
0aaaab

#1647000
0aaaaa

#1649000
1aaaaa

#1651000
0aaaaa
1aaaab

#1653000
1aaaaa
b1 aaaad

#1655000
0aaaaa

#1656000
0aaaab

#1657000
1aaaaa

#1659000
0aaaaa

#1661000
1aaaaa
1aaaab

#1663000
0aaaaa

#1665000
1aaaaa

#1666000
0aaaab

#1667000
0aaaaa

#1669000
1aaaaa

#1671000
0aaaaa
1aaaab

#1673000
1aaaaa

#1675000
0aaaaa

#1676000
0aaaab

#1677000
1aaaaa

#1679000
0aaaaa

#1681000
1aaaaa
1aaaab

#1683000
0aaaaa

#1685000
1aaaaa

#1686000
0aaaab

#1687000
0aaaaa

#1689000
1aaaaa

#1691000
0aaaaa
1aaaab

#1693000
1aaaaa
b10 aaaad

#1695000
0aaaaa
b1001 aaaag

#1696000
0aaaab

#1697000
1aaaaa
b1001 aaaac

#1699000
0aaaaa

#1701000
1aaaaa
1aaaab

#1703000
0aaaaa

#1705000
1aaaaa

#1706000
0aaaab

#1707000
0aaaaa

#1709000
1aaaaa

#1711000
0aaaaa
1aaaab

#1713000
1aaaaa

#1715000
0aaaaa

#1716000
0aaaab

#1717000
1aaaaa

#1719000
0aaaaa

#1721000
1aaaaa
1aaaab

#1723000
0aaaaa

#1725000
1aaaaa

#1726000
0aaaab

#1727000
0aaaaa

#1729000
1aaaaa

#1731000
0aaaaa
1aaaab

#1733000
1aaaaa

#1735000
0aaaaa

#1736000
0aaaab

#1737000
1aaaaa
b1 aaaad

#1739000
0aaaaa

#1741000
1aaaaa
1aaaab

#1743000
0aaaaa

#1745000
1aaaaa

#1746000
0aaaab

#1747000
0aaaaa

#1749000
1aaaaa

#1751000
0aaaaa
1aaaab

#1753000
1aaaaa

#1755000
0aaaaa

#1756000
0aaaab

#1757000
1aaaaa

#1759000
0aaaaa

#1761000
1aaaaa
1aaaab

#1763000
0aaaaa

#1765000
1aaaaa

#1766000
0aaaab

#1767000
0aaaaa

#1769000
1aaaaa

#1771000
0aaaaa
1aaaab

#1773000
1aaaaa

#1775000
0aaaaa

#1776000
0aaaab

#1777000
1aaaaa
b10 aaaad

#1779000
0aaaaa
b1010 aaaag

#1781000
1aaaaa
1aaaab
b1010 aaaac

#1783000
0aaaaa

#1785000
1aaaaa

#1786000
0aaaab

#1787000
0aaaaa

#1789000
1aaaaa

#1791000
0aaaaa
1aaaab

#1793000
1aaaaa

#1795000
0aaaaa

#1796000
0aaaab

#1797000
1aaaaa

#1799000
0aaaaa

#1801000
1aaaaa
1aaaab

#1803000
0aaaaa

#1805000
1aaaaa

#1806000
0aaaab

#1807000
0aaaaa

#1809000
1aaaaa

#1811000
0aaaaa
1aaaab

#1813000
1aaaaa

#1815000
0aaaaa

#1816000
0aaaab

#1817000
1aaaaa

#1819000
0aaaaa

#1821000
1aaaaa
1aaaab
b1 aaaad

#1823000
0aaaaa

#1825000
1aaaaa

#1826000
0aaaab

#1827000
0aaaaa

#1829000
1aaaaa

#1831000
0aaaaa
1aaaab

#1833000
1aaaaa

#1835000
0aaaaa

#1836000
0aaaab

#1837000
1aaaaa

#1839000
0aaaaa

#1841000
1aaaaa
1aaaab

#1843000
0aaaaa

#1845000
1aaaaa

#1846000
0aaaab

#1847000
0aaaaa

#1849000
1aaaaa

#1851000
0aaaaa
1aaaab

#1853000
1aaaaa

#1855000
0aaaaa

#1856000
0aaaab

#1857000
1aaaaa

#1859000
0aaaaa

#1861000
1aaaaa
1aaaab
b10 aaaad

#1863000
0aaaaa
b1011 aaaag

#1865000
1aaaaa
b1011 aaaac

#1866000
0aaaab

#1867000
0aaaaa

#1869000
1aaaaa

#1871000
0aaaaa
1aaaab

#1873000
1aaaaa

#1875000
0aaaaa

#1876000
0aaaab

#1877000
1aaaaa

#1879000
0aaaaa

#1881000
1aaaaa
1aaaab

#1883000
0aaaaa

#1885000
1aaaaa

#1886000
0aaaab

#1887000
0aaaaa

#1889000
1aaaaa

#1891000
0aaaaa
1aaaab

#1893000
1aaaaa

#1895000
0aaaaa

#1896000
0aaaab

#1897000
1aaaaa

#1899000
0aaaaa

#1901000
1aaaaa
1aaaab

#1903000
0aaaaa

#1905000
1aaaaa
b1 aaaad

#1906000
0aaaab

#1907000
0aaaaa

#1909000
1aaaaa

#1911000
0aaaaa
1aaaab

#1913000
1aaaaa

#1915000
0aaaaa

#1916000
0aaaab

#1917000
1aaaaa

#1919000
0aaaaa

#1921000
1aaaaa
1aaaab

#1923000
0aaaaa

#1925000
1aaaaa

